<svg viewBox="0 0 222 292" fill="none" xmlns="http://www.w3.org/2000/svg">
<g clip-path="url(#clip0_537_15)">
<path d="M151.561 0.150165L250.256 -26.2951L263.443 22.9208C263.443 22.9208 184.529 61.9046 164.748 49.3661C144.967 36.8276 151.561 0.150165 151.561 0.150165Z" fill="#1E3799" fill-opacity="0.1"/>
<path d="M-28 -27H108.681C108.681 -27 113.899 6.97847 108.681 27.6842C97.7558 71.0312 40.7701 47.0605 27.8757 108.634C14.9813 170.208 -28 108.634 -28 108.634V-27Z" fill="#1E3799" fill-opacity="0.1"/>
</g>
<defs>
<clipPath id="clip0_537_15">
<rect width="222" height="292" fill="white"/>
</clipPath>
</defs>
</svg>
