<svg viewBox="0 0 256 103">
<mask id="mask0_176_4229" style="mask-type:alpha" maskUnits="userSpaceOnUse" x="0" y="0" width="99" height="102">
<path d="M92.121 85.7395C93.1145 84.7481 93.9027 83.5711 94.4404 82.2758C94.9781 80.9805 95.2548 79.5922 95.2548 78.1902C95.2548 76.7881 94.9781 75.3998 94.4404 74.1045C93.9027 72.8092 93.1145 71.6322 92.1209 70.6408C91.1274 69.6494 89.9479 68.863 88.6497 68.3265C87.3515 67.7899 85.9602 67.5138 84.5551 67.5138C83.15 67.5138 81.7586 67.7899 80.4604 68.3265C79.1623 68.863 77.9828 69.6494 76.9892 70.6408L80.6442 74.2878C81.1578 73.7754 81.7675 73.3689 82.4385 73.0915C83.1095 72.8142 83.8288 72.6714 84.5551 72.6714C85.2814 72.6714 86.0006 72.8142 86.6716 73.0915C87.3427 73.3688 87.9524 73.7754 88.466 74.2878C88.9795 74.8003 89.3869 75.4087 89.6649 76.0782C89.9428 76.7478 90.0859 77.4654 90.0859 78.1902C90.0859 78.9149 89.9428 79.6325 89.6649 80.3021C89.3869 80.9717 88.9796 81.58 88.466 82.0925L92.121 85.7395Z" fill="#0C2461"/>
<path d="M64.8562 41.188C65.8498 42.1794 67.0293 42.9658 68.3275 43.5024C69.6256 44.0389 71.017 44.3151 72.4221 44.3151C73.8272 44.3151 75.2185 44.0389 76.5167 43.5024C77.8149 42.9658 78.9944 42.1794 79.988 41.188C80.9815 40.1966 81.7697 39.0197 82.3074 37.7244C82.8451 36.4291 83.1219 35.0407 83.1219 33.6387C83.1219 32.2367 82.8451 30.8483 82.3074 29.553C81.7697 28.2577 80.9815 27.0808 79.988 26.0894L76.333 29.7364C76.8466 30.2488 77.254 30.8572 77.5319 31.5268C77.8099 32.1963 77.9529 32.914 77.9529 33.6387C77.9529 34.3634 77.8099 35.0811 77.5319 35.7506C77.254 36.4202 76.8466 37.0286 76.333 37.541C75.8194 38.0535 75.2097 38.46 74.5386 38.7374C73.8676 39.0147 73.1484 39.1574 72.4221 39.1574C71.6958 39.1574 70.9766 39.0147 70.3055 38.7374C69.6345 38.46 69.0248 38.0535 68.5112 37.541L64.8562 41.188Z" fill="#0C2461"/>
<path d="M62.1001 16.443C68.9251 17.814 75.1821 21.1934 80.0645 26.1455L76.3779 29.7643C72.2201 25.5471 66.8916 22.6693 61.0795 21.5017C55.2673 20.3341 49.2379 20.9303 43.7685 23.2135C38.299 25.4967 33.6403 29.3622 30.3929 34.3116C27.1455 39.2611 25.4583 45.0677 25.5487 50.9828C25.57 52.3723 25.6891 53.7529 25.9029 55.1149C24.0492 55.202 22.346 55.8631 20.9677 56.924C20.6068 54.9987 20.408 53.0378 20.3778 51.0615C20.2716 44.1156 22.2529 37.2972 26.0662 31.4852C29.8795 25.6732 35.35 21.1342 41.7725 18.4531C48.1951 15.772 55.2752 15.0719 62.1001 16.443Z" fill="#0C2461"/>
<path d="M28.1489 72.4251C31.9941 77.1593 37.0292 80.814 42.7593 83.0036C49.2608 85.488 56.359 85.9723 63.1389 84.3942C69.9188 82.816 76.0696 79.2478 80.7983 74.1494L77.0028 70.6445C72.9758 74.9863 67.7378 78.025 61.9641 79.3689C56.1903 80.7128 50.1455 80.3004 44.6088 78.1847C40.0024 76.4245 35.9235 73.5525 32.7265 69.845C31.5224 71.1272 29.9361 72.0476 28.1489 72.4251Z" fill="#0C2461"/>
<path d="M35.0968 63.86C35.0968 68.6953 31.1684 72.615 26.3226 72.615C21.4767 72.615 17.5484 68.6953 17.5484 63.86C17.5484 59.0248 21.4767 55.105 26.3226 55.105C31.1684 55.105 35.0968 59.0248 35.0968 63.86ZM22.4773 63.86C22.4773 65.9791 24.1989 67.6969 26.3226 67.6969C28.4462 67.6969 30.1678 65.9791 30.1678 63.86C30.1678 61.741 28.4462 60.0232 26.3226 60.0232C24.1989 60.0232 22.4773 61.741 22.4773 63.86Z" fill="#0C2461"/>
<path d="M84.7892 9.81171C76.9501 4.15873 67.6565 0.848991 57.9958 0.274643C48.1922 -0.308195 38.4289 1.9507 29.8828 6.77905C21.3367 11.6074 14.3725 18.7991 9.82983 27.4872C9.50704 28.1046 9.19745 28.7276 8.90115 29.3559C10.7426 29.382 12.4469 29.9741 13.8471 30.9657C14.0271 30.5976 14.2122 30.2315 14.4025 29.8676C18.485 22.0597 24.7436 15.5965 32.424 11.2573C40.1044 6.91808 48.8786 4.88801 57.689 5.41181C66.3056 5.92408 74.5971 8.85768 81.6084 13.8681C82.2409 12.2181 83.3594 10.8078 84.7892 9.81171Z" fill="#0C2461"/>
<path d="M4.28006 55.7455C3.96219 52.3756 3.98405 48.9989 4.33606 45.6641C5.6381 46.4274 7.15492 46.865 8.77419 46.865C8.98538 46.865 9.19482 46.8576 9.40228 46.843C9.14765 49.6316 9.14956 52.4501 9.41493 55.2632C10.242 64.0312 13.593 72.3734 19.0639 79.2842C24.5348 86.1949 31.8922 91.3793 40.2491 94.2123C48.606 97.0454 57.6057 97.4062 66.1635 95.2512C74.7212 93.0963 82.4717 88.5175 88.4806 82.067L92.2583 85.5707C85.572 92.7483 76.9479 97.8432 67.4255 100.241C57.9031 102.639 47.8889 102.237 38.5899 99.0851C29.291 95.9327 21.1043 90.1639 15.0167 82.4741C8.92907 74.7843 5.20037 65.5018 4.28006 55.7455Z" fill="#0C2461"/>
<path d="M17.5484 38.11C17.5484 42.9453 13.62 46.865 8.77419 46.865C3.92834 46.865 0 42.9453 0 38.11C0 33.2748 3.92834 29.355 8.77419 29.355C13.62 29.355 17.5484 33.2748 17.5484 38.11ZM4.92895 38.11C4.92895 40.2291 6.65053 41.9469 8.77419 41.9469C10.8979 41.9469 12.6194 40.2291 12.6194 38.11C12.6194 35.991 10.8979 34.2732 8.77419 34.2732C6.65053 34.2732 4.92895 35.991 4.92895 38.11Z" fill="#0C2461"/>
<path d="M75.871 62.315C75.871 67.1503 71.9426 71.07 67.0968 71.07C62.2509 71.07 58.3226 67.1503 58.3226 62.315C58.3226 57.4798 62.2509 53.56 67.0968 53.56C71.9426 53.56 75.871 57.4798 75.871 62.315ZM63.2515 62.315C63.2515 64.4341 64.9731 66.1519 67.0968 66.1519C69.2204 66.1519 70.942 64.4341 70.942 62.315C70.942 60.196 69.2204 58.4782 67.0968 58.4782C64.9731 58.4782 63.2515 60.196 63.2515 62.315Z" fill="#0C2461"/>
<path d="M98.5806 16.995C98.5806 21.8303 94.6523 25.75 89.8064 25.75C84.9606 25.75 81.0323 21.8303 81.0323 16.995C81.0323 12.1598 84.9606 8.24004 89.8064 8.24004C94.6523 8.24004 98.5806 12.1598 98.5806 16.995ZM85.9612 16.995C85.9612 19.1141 87.6828 20.8319 89.8064 20.8319C91.9301 20.8319 93.6517 19.1141 93.6517 16.995C93.6517 14.876 91.9301 13.1582 89.8064 13.1582C87.6828 13.1582 85.9612 14.876 85.9612 16.995Z" fill="#0C2461"/>
<path d="M60.013 32.6678C63.2409 33.5052 66.1835 35.1937 68.5323 37.5564L64.8638 41.1873C63.168 39.4815 61.0434 38.2623 58.7129 37.6578C56.3823 37.0532 53.9317 37.0855 51.6179 37.7513C49.3042 38.417 47.2126 39.6918 45.5626 41.4417C43.9125 43.1917 42.7647 45.3524 42.2397 47.6974C41.7146 50.0423 41.8315 52.485 42.5782 54.7693C43.3249 57.0536 44.6738 59.0954 46.4835 60.6805C48.2932 62.2656 50.497 63.3356 52.8638 63.7783C54.7115 64.1239 56.6055 64.0772 58.4237 63.6483C58.7013 65.4616 59.5365 67.0919 60.7492 68.3594C57.8904 69.2278 54.8587 69.397 51.9118 68.8458C48.6337 68.2326 45.5813 66.7506 43.0748 64.5552C40.5683 62.3598 38.6999 59.5319 37.6658 56.368C36.6316 53.2042 36.4696 49.8209 37.1969 46.5731C37.9242 43.3253 39.5139 40.3325 41.7993 37.9088C44.0847 35.485 46.9816 33.7195 50.1862 32.7973C53.3908 31.8752 56.7851 31.8305 60.013 32.6678Z" fill="#0C2461"/>
</mask>
<g mask="url(#mask0_176_4229)">
<rect x="-47" y="-48.1738" width="198" height="198" fill="url(#paint0_linear_176_4229)"/>
</g>
<path d="M131.304 55.3754C131.304 57.5581 131.007 59.4914 130.414 61.1752C129.835 62.859 128.984 64.2855 127.859 65.4548C126.75 66.6086 125.406 67.4817 123.828 68.0741C122.265 68.6666 120.5 68.9628 118.531 68.9628C116.687 68.9628 114.992 68.6666 113.445 68.0741C111.914 67.4817 110.578 66.6086 109.437 65.4548C108.312 64.2855 107.437 62.859 106.812 61.1752C106.203 59.4914 105.898 57.5581 105.898 55.3754C105.898 52.4755 106.414 50.0199 107.445 48.0087C108.476 45.9975 109.945 44.4696 111.851 43.425C113.757 42.3804 116.031 41.8581 118.671 41.8581C121.125 41.8581 123.296 42.3804 125.187 43.425C127.093 44.4696 128.585 45.9975 129.664 48.0087C130.757 50.0199 131.304 52.4755 131.304 55.3754ZM113.187 55.3754C113.187 57.0904 113.375 58.5325 113.75 59.7018C114.125 60.8711 114.71 61.752 115.507 62.3445C116.304 62.9369 117.343 63.2332 118.625 63.2332C119.89 63.2332 120.914 62.9369 121.695 62.3445C122.492 61.752 123.07 60.8711 123.429 59.7018C123.804 58.5325 123.992 57.0904 123.992 55.3754C123.992 53.6448 123.804 52.2104 123.429 51.0723C123.07 49.9186 122.492 49.0533 121.695 48.4764C120.898 47.8996 119.859 47.6112 118.578 47.6112C116.687 47.6112 115.312 48.2582 114.453 49.5522C113.609 50.8462 113.187 52.7873 113.187 55.3754Z" fill="white"/>
<path d="M146.707 68.9628C143.785 68.9628 141.403 67.8247 139.559 65.5484C137.731 63.2565 136.817 59.8967 136.817 55.4689C136.817 50.9944 137.746 47.6112 139.606 45.3193C141.465 43.0119 143.895 41.8581 146.895 41.8581C148.145 41.8581 149.246 42.0296 150.2 42.3726C151.153 42.7156 151.973 43.1756 152.66 43.7524C153.364 44.3293 153.957 44.9763 154.442 45.6935H154.676C154.582 45.1946 154.465 44.4618 154.325 43.4952C154.2 42.513 154.137 41.5073 154.137 40.4784V32.1061H161.309V68.4951H155.825L154.442 65.1041H154.137C153.684 65.8212 153.114 66.476 152.426 67.0685C151.754 67.6454 150.95 68.1053 150.012 68.4483C149.075 68.7913 147.973 68.9628 146.707 68.9628ZM149.215 63.2799C151.168 63.2799 152.543 62.7031 153.34 61.5493C154.153 60.38 154.582 58.6261 154.629 56.2874V55.5157C154.629 52.9744 154.239 51.0333 153.457 49.6925C152.676 48.3361 151.223 47.6579 149.098 47.6579C147.52 47.6579 146.285 48.3361 145.395 49.6925C144.504 51.0489 144.059 53.0056 144.059 55.5625C144.059 58.1194 144.504 60.0448 145.395 61.3389C146.301 62.6329 147.575 63.2799 149.215 63.2799Z" fill="white"/>
<path d="M180.79 41.8581C183.212 41.8581 185.298 42.3259 187.048 43.2613C188.798 44.1812 190.149 45.522 191.103 47.2837C192.056 49.0455 192.532 51.197 192.532 53.7383V57.1995H175.634C175.712 59.2107 176.314 60.7932 177.439 61.9469C178.579 63.085 180.157 63.6541 182.173 63.6541C183.845 63.6541 185.376 63.4826 186.767 63.1396C188.157 62.7966 189.587 62.2821 191.056 61.5961V67.1153C189.759 67.7545 188.399 68.2222 186.978 68.5184C185.571 68.8147 183.86 68.9628 181.845 68.9628C179.22 68.9628 176.892 68.4795 174.86 67.5128C172.845 66.5462 171.259 65.0729 170.103 63.0928C168.962 61.1128 168.392 58.6183 168.392 55.6092C168.392 52.5534 168.907 50.0121 169.939 47.9853C170.985 45.9429 172.439 44.415 174.298 43.4016C176.157 42.3726 178.321 41.8581 180.79 41.8581ZM180.837 46.933C179.446 46.933 178.29 47.3773 177.368 48.266C176.462 49.1546 175.939 50.55 175.798 52.4521H185.829C185.814 51.3919 185.618 50.4487 185.243 49.6224C184.884 48.7961 184.337 48.1412 183.603 47.6579C182.884 47.1746 181.962 46.933 180.837 46.933Z" fill="white"/>
<path d="M116.427 87.9926C115.949 87.9926 115.524 88.0865 115.153 88.2743C114.787 88.4567 114.478 88.7222 114.226 89.0709C113.978 89.4196 113.79 89.8407 113.661 90.3343C113.532 90.8278 113.468 91.3831 113.468 92C113.468 92.8315 113.57 93.5423 113.774 94.1324C113.984 94.7171 114.306 95.1651 114.742 95.4762C115.177 95.782 115.739 95.9349 116.427 95.9349C116.906 95.9349 117.384 95.8813 117.863 95.774C118.347 95.6667 118.871 95.5138 119.435 95.3153V97.4075C118.914 97.6221 118.4 97.775 117.895 97.8662C117.39 97.9627 116.822 98.011 116.193 98.011C114.978 98.011 113.978 97.7615 113.193 97.2626C112.414 96.7584 111.836 96.0556 111.459 95.1544C111.083 94.2477 110.895 93.1909 110.895 91.9839C110.895 91.0934 111.016 90.2779 111.258 89.5376C111.5 88.7973 111.855 88.1563 112.322 87.6144C112.79 87.0726 113.368 86.6542 114.056 86.3591C114.744 86.0641 115.535 85.9165 116.427 85.9165C117.013 85.9165 117.599 85.9916 118.185 86.1419C118.777 86.2867 119.341 86.4879 119.879 86.7454L119.072 88.7732C118.631 88.564 118.188 88.3816 117.742 88.226C117.295 88.0704 116.857 87.9926 116.427 87.9926Z" fill="white"/>
<path d="M136.886 88.8537V97.8501H134.999L134.668 96.6994H134.539C134.346 97.0051 134.104 97.2546 133.814 97.4477C133.523 97.6408 133.203 97.783 132.854 97.8742C132.504 97.9654 132.142 98.011 131.765 98.011C131.12 98.011 130.558 97.8983 130.08 97.673C129.601 97.4424 129.228 97.0856 128.959 96.6028C128.695 96.12 128.564 95.4923 128.564 94.7198V88.8537H131.023V94.1083C131.023 94.752 131.139 95.2375 131.37 95.5647C131.601 95.892 131.97 96.0556 132.475 96.0556C132.975 96.0556 133.367 95.9429 133.652 95.7176C133.937 95.487 134.136 95.1517 134.249 94.7118C134.367 94.2665 134.427 93.7247 134.427 93.0863V88.8537H136.886ZM132.362 85.2245C132.523 85.4713 132.717 85.7449 132.943 86.0453C133.174 86.3457 133.408 86.6381 133.644 86.9224C133.881 87.2014 134.085 87.4428 134.257 87.6466V87.8639H132.628C132.418 87.719 132.174 87.5393 131.894 87.3247C131.615 87.1048 131.327 86.8768 131.031 86.6408C130.741 86.3994 130.47 86.1687 130.217 85.9487C129.964 85.7288 129.76 85.5437 129.604 85.3935V85.2245H132.362Z" fill="white"/>
<path d="M151.442 88.6847C152.404 88.6847 153.179 88.9475 153.765 89.4733C154.351 89.9936 154.644 90.8305 154.644 91.9839V97.8501H152.184V92.5954C152.184 91.9517 152.066 91.4662 151.829 91.139C151.598 90.8117 151.232 90.6481 150.732 90.6481C149.98 90.6481 149.466 90.9029 149.192 91.4126C148.918 91.9222 148.781 92.6571 148.781 93.6174V97.8501H146.321V88.8537H148.2L148.531 90.0044H148.668C148.861 89.6932 149.101 89.4411 149.386 89.2479C149.676 89.0548 149.996 88.9127 150.345 88.8215C150.7 88.7303 151.066 88.6847 151.442 88.6847Z" fill="white"/>
<path d="M166.667 101.809C165.409 101.809 164.447 101.589 163.78 101.149C163.119 100.715 162.788 100.103 162.788 99.3146C162.788 98.7728 162.957 98.3195 163.296 97.9547C163.635 97.5899 164.132 97.3297 164.788 97.1741C164.535 97.0668 164.315 96.8925 164.127 96.6511C163.939 96.4043 163.845 96.1441 163.845 95.8705C163.845 95.5272 163.944 95.2429 164.143 95.0176C164.342 94.7869 164.63 94.5616 165.006 94.3416C164.533 94.1378 164.156 93.8105 163.877 93.3599C163.603 92.9093 163.466 92.3782 163.466 91.7666C163.466 91.1121 163.608 90.5569 163.893 90.1009C164.183 89.6396 164.603 89.2882 165.151 89.0468C165.705 88.8054 166.377 88.6847 167.167 88.6847C167.334 88.6847 167.527 88.6954 167.748 88.7169C167.968 88.7383 168.17 88.7625 168.353 88.7893C168.541 88.8161 168.667 88.8376 168.732 88.8537H171.877V90.1009L170.466 90.463C170.595 90.6615 170.691 90.8734 170.756 91.0987C170.82 91.324 170.853 91.5628 170.853 91.8149C170.853 92.7805 170.514 93.5343 169.837 94.0761C169.164 94.6125 168.229 94.8808 167.03 94.8808C166.745 94.8647 166.476 94.8432 166.224 94.8164C166.1 94.9129 166.006 95.0149 165.941 95.1222C165.877 95.2295 165.845 95.3421 165.845 95.4601C165.845 95.5782 165.893 95.6774 165.99 95.7579C166.092 95.833 166.242 95.892 166.441 95.9349C166.646 95.9725 166.898 95.9912 167.199 95.9912H168.732C169.721 95.9912 170.474 96.2031 170.99 96.6269C171.511 97.0507 171.772 97.673 171.772 98.4938C171.772 99.5453 171.331 100.361 170.449 100.94C169.573 101.519 168.312 101.809 166.667 101.809ZM166.772 100.208C167.358 100.208 167.861 100.151 168.28 100.039C168.705 99.9315 169.03 99.7759 169.256 99.5721C169.482 99.3736 169.595 99.1349 169.595 98.8559C169.595 98.6306 169.527 98.4509 169.393 98.3168C169.264 98.188 169.065 98.0968 168.796 98.0432C168.533 97.9895 168.194 97.9627 167.78 97.9627H166.506C166.205 97.9627 165.933 98.011 165.691 98.1076C165.455 98.2041 165.267 98.3382 165.127 98.5099C164.987 98.6869 164.917 98.8908 164.917 99.1215C164.917 99.4594 165.078 99.725 165.401 99.9181C165.729 100.111 166.186 100.208 166.772 100.208ZM167.167 93.384C167.63 93.384 167.968 93.2419 168.183 92.9576C168.398 92.6732 168.506 92.287 168.506 91.7988C168.506 91.257 168.393 90.852 168.167 90.5837C167.947 90.3101 167.613 90.1733 167.167 90.1733C166.716 90.1733 166.377 90.3101 166.151 90.5837C165.925 90.852 165.812 91.257 165.812 91.7988C165.812 92.287 165.923 92.6732 166.143 92.9576C166.369 93.2419 166.71 93.384 167.167 93.384Z" fill="white"/>
<path d="M202.021 97.8501H198.843L193.714 88.9502H193.642C193.663 89.3204 193.682 89.6932 193.698 90.0687C193.714 90.4443 193.73 90.8198 193.747 91.1953C193.763 91.5654 193.779 91.9383 193.795 92.3138V97.8501H191.561V86.0855H194.714L199.835 94.8969H199.892C199.881 94.5321 199.867 94.17 199.851 93.8105C199.835 93.4511 199.819 93.0917 199.803 92.7322C199.792 92.3728 199.781 92.0134 199.771 91.654V86.0855H202.021V97.8501Z" fill="white"/>
<path d="M214.117 85.3291V87.88C214.117 88.3252 214.101 88.749 214.068 89.1514C214.042 89.5537 214.02 89.8381 214.004 90.0044H214.133C214.327 89.6932 214.555 89.4411 214.818 89.2479C215.087 89.0548 215.383 88.9127 215.706 88.8215C216.028 88.7303 216.375 88.6847 216.746 88.6847C217.396 88.6847 217.964 88.8 218.447 89.0307C218.931 89.256 219.308 89.6127 219.577 90.1009C219.845 90.5837 219.98 91.2114 219.98 91.9839V97.8501H217.52V92.5954C217.52 91.9517 217.402 91.4662 217.165 91.139C216.929 90.8117 216.563 90.6481 216.068 90.6481C215.574 90.6481 215.184 90.7634 214.899 90.9941C214.614 91.2194 214.413 91.5547 214.294 92C214.176 92.4399 214.117 92.979 214.117 93.6174V97.8501H211.657V85.3291H214.117Z" fill="white"/>
<path d="M233.06 88.6686C234.269 88.6686 235.197 88.9314 235.842 89.4572C236.487 89.9829 236.81 90.7822 236.81 91.8551V97.8501H235.092L234.616 96.6269H234.552C234.294 96.9488 234.03 97.2117 233.761 97.4155C233.493 97.6194 233.183 97.7696 232.834 97.8662C232.484 97.9627 232.06 98.011 231.56 98.011C231.027 98.011 230.549 97.9091 230.124 97.7052C229.705 97.5014 229.374 97.1902 229.132 96.7718C228.89 96.348 228.769 95.8115 228.769 95.1624C228.769 94.2075 229.105 93.5047 229.777 93.0541C230.45 92.5981 231.458 92.346 232.802 92.2977L234.366 92.2494V91.8551C234.366 91.3831 234.243 91.037 233.995 90.8171C233.748 90.5971 233.404 90.4872 232.963 90.4872C232.527 90.4872 232.1 90.5489 231.681 90.6722C231.261 90.7956 230.842 90.9512 230.423 91.139L229.608 89.4813C230.087 89.2292 230.622 89.0307 231.213 88.8858C231.81 88.741 232.425 88.6686 233.06 88.6686ZM234.366 93.6818L233.415 93.714C232.619 93.7354 232.065 93.8776 231.753 94.1404C231.447 94.4033 231.294 94.7493 231.294 95.1785C231.294 95.554 231.404 95.8222 231.624 95.9832C231.845 96.1388 232.132 96.2165 232.487 96.2165C233.014 96.2165 233.458 96.061 233.818 95.7498C234.183 95.4387 234.366 94.9961 234.366 94.4221V93.6818Z" fill="white"/>
<path d="M254.478 88.8537V97.8501H252.591L252.261 96.6994H252.132C251.938 97.0051 251.696 97.2546 251.406 97.4477C251.116 97.6408 250.796 97.783 250.446 97.8742C250.097 97.9654 249.734 98.011 249.357 98.011C248.712 98.011 248.15 97.8983 247.672 97.673C247.194 97.4424 246.82 97.0856 246.551 96.6028C246.288 96.12 246.156 95.4923 246.156 94.7198V88.8537H248.616V94.1083C248.616 94.752 248.731 95.2375 248.962 95.5647C249.194 95.892 249.562 96.0556 250.067 96.0556C250.567 96.0556 250.96 95.9429 251.245 95.7176C251.53 95.487 251.728 95.1517 251.841 94.7118C251.96 94.2665 252.019 93.7247 252.019 93.0863V88.8537H254.478Z" fill="white"/>
<defs>
<linearGradient id="paint0_linear_176_4229" x1="52" y1="-48.1738" x2="52" y2="149.826" gradientUnits="userSpaceOnUse">
<stop stop-color="#3992FD"/>
<stop offset="1" stop-color="#455BEF"/>
</linearGradient>
</defs>
</svg>
